[
{"title": "Sobre madera rosa", "lyrics": "/Tengo un mandala / pintado en Jaipur / bajo un vaso con agua con dos gotas de gin / Una trampa cazadora de espíritus del Japón / y un espejo que atesora el origen del sueño / Una muñequita  vudu / con los miembros zurcidos con pelo de cabra negra / Una pulsera con semillas sagradas / florecidas  y perfumadas / Tengo un manuscrito / sin rótulos ni tapas / con grabados de una mujer partida en tres / Una mascara del Durbán / y una rueda mágica enlazada a un asno / Una falda turca de un ajuar / y un retrato grabado sobre madera rosa / Serenidad escrito en una lengua muerta / con sangre de niño y de casadera / Y sobre un formidable insecto embalsamado / con los ojos picados por querer aparearse / Con las alas cuarteadas y todavía con sangre / una imagen tuya conmigo fuera de plano/"},
{"title": "Palabras malas", "lyrics": "/De todos nuestros amores / solo quedan palabras / apretadas en papeles / perfumadas en cartas/ que demuestran que si el amor existe no se dice / que si el amor existe no se escribe / Otra palabra de amor apilada sobre otras tantas palabras de amor / Toneladas de promesas / que pueden venderse al peso / Kilos de papel besado / ¿cuánto pueden dar por eso? / Pulpa de amor de un árbol débil / en buena tierra / bajo un buen sol / regado con agua estéril / Otra palabra de amor apilada sobre otras tantas palabras de amor / Otra palabra de amor apilada sobre otra palabra de amor apilada sobre otra palabra de amor apilada sobre otras tantas palabras de amor/"},
{"title": "Felicidad vitamina", "lyrics": "/Estoy contento porque me tomé / todo este frasco de vitaminas / Estoy contento porque llené / todo mi cuerpo de energía / La felicidad es artificial para mí / Me siento al sol en la esquina del cuarto / para ordenar nuestras fotografías / Quedo montado en el cielo de un puerto / Afuera es noche / Acá es de día / La felicidad es artificial para mí / La potencia firme del tiempo suelta / al corazón a pastar en los labios / El nervio cortado de la alegría / se suelda con vitaminas / Encuentro la casa mucho más grande / Hay ciertas partes que ni me acuerdo / Exploro un bolso, cajones nuevos / cartas vacías en sobres viejos / Entra aire frío de pronto al cuarto / Gritas mi nombre arrojás el frasco / Semillas de Felicidad por el suelo / Quito los vidrios me trago el resto / La felicidad es artificial para mí/"},
{"title": "El amigo de mi padre", "lyrics": "/El amigo de mi padre / era su peor secreto / Un silencio compartido / para nadie era un misterio / Para mí no había misterios / Vagaban tardes enteras / conversando de sus cosas /Yo caminaba adelante / jugando con la pelota / mientras mi mamá lloraba / Mi mamá siempre lloraba / Y cuando mamá salía / a mis hermanos llevaba /y yo siempre me escondía / con mi papá me quedaba / porqué sabía que venía / cuando mi mamá no estaba / el amigo de mi padre / el hombre que él más quería / Y cuando le preguntaba  / cómo era su familia / me decía que tenía / una doble biografía / (cosa que yo no entendía) / El amigo de mi padre / le conversaba al oído/ y mi viejo sonreía / llenaba el cuarto vacío / Tomaban litros de mate / y tiernamente me atendían / mi padre era mejor padre / cuando su amigo venía / cuando a su amigo veía / Ahora que todos partieron / y los pienso en la otra vida / a mamá la veo con Dios / llorando bien atendida / y a papá lo veo radiante / con su amigo desafían / los aires de un cielo justo / en eterna compañía/"},
{"title": "De palabra", "lyrics": "/En mi divorcio con la palabra / quedé con la tenencia del silencio / Silencio y yo; ya sin palabra / somos felices sin palabra / Silencio quedó en la casa / acomodo la casa al silencio / que fija puertas, clausura ventanas / Sabe que el viento traerá a palabra / Desaparece el silencio / cuando aparece palabra / Quiero que rompa el silencio / si el hijo calla; la madre habla / Silencio ocupo en la cama / el lugar que tenía palabra / Se mantiene desvelado / si duerme el silencio vuelve palabra / Cortó a su madre el Silencio / No quiere oír hablar de palabra / que ha abandonado al silencio / Hijo sin madre; sin palabra/"},
{"title": "El amor no se hace", "lyrics": "/¿Cómo es eso? / ¡¿Qué se hace el amor?! / ¿Cómo es eso? / Explicate mejor / No se hace el amor / No se hace el amor / El amor no se hace / No se hace / Esa ideita moderna / de que se “hace” el amor / Ese verbo de segunda / es lengua de explotador / No se hace el amor / No se hace el amor / El amor no se hace / No se hace el amor / No podríamos hacerlo entonces / si nos falta el capital / y los que vivimos cortos / no podríamos amor armar / No se arma el amor / No se hace el amor / El amor no se hace / No se hace el amor/"},
{"title": "Tu cama queda ahora a un tren y a un colectivo de mi cama", "lyrics": "/Tu cama queda ahora a un tren y a un colectivo de mi cama /Ya dormimos bien lejos / yo en cama abierta / vos en cama cerrada / Que ahora volteas tus brazos / sobre una almohada dura / Que te sube la fiebre / que caes sino te canto tu canción de cuna / Que solo mi canción aleja en fila y de a una a tus angustias / que dormís sin pastillas / sin ningún sacudón /si te llamo y te canto una canción / Nos rumiamos eternos /en mi canción de cuna / y ahora querés que les cante a los dos / la que fue mi canción de cuna para vos / Nos rumiamos eternos /en mi canción de cuna / y ahora llamás para que cante a los dos / la que fue mi canción de cuna para vos/"},
{"title": "Calvas margaritas", "lyrics": "/Calvas margaritas / Docenas de cabezas porfiadas / Calvas margaritas calvas / Me quiere mucho / poco / me quiere nada / Calvas margaritas / Se que conocen bien nuestra suerte / Calvas margaritas calvas / tercas en soplarme que voy a perderte / Caigo tumbado sobre tanto  “me quiere” / Aprieto el ramo intuyendo “no me quiere” / Blanco, amarillo y verde / Calvas margaritas / Ramos completos con flores cargadas / Calvas margaritas calvas / Flores de un solo pétalo / “me quiere nada” / Caigo tumbado sobre tanto  “me quiere” / Aprieto el ramo intuyendo “no me quiere” / Blanco, amarillo y verde / Calvas margaritas / Docenas de cabezas porfiadas / Calvas margaritas calvas / Me quiere mucho / poco / me quiere nada //"},
{"title": "Tapado de piel", "lyrics": "/Crawl adelante / y crawl atrás / Subo a la superficie a respirar / Abro los ojos / los vuelvo a cerrar / Me hundo /  me abandono / Una sobre otra / piel bajo la piel sobre la piel / Sofocado, inconsciente, coronado / No hay sudor / solo hay piel bajo la piel sobre la piel / Kilómetros de piel marcada / Marcas de agua sobre rutas de piel / bajo la piel si giro / Piel si quedo / Crawl adelante / y crawl atrás / Subo a la superficie a respirar / Abro los ojos / los vuelvo a cerrar / Me hundo /  me abandono / Naufrago zozobrando y no hago pie bajo la piel / sobre la piel me fundo y me adelanto / Piel natural, sin depilar bajo la piel / sobre la Piel entintada / Apretado sutil y suavemente en piel / si giro piel si quedo / Crawl adelante / y crawl atrás / Subo a la superficie a respirar / Abro los ojos / los vuelvo a cerrar / Me hundo /  me abandono / por que no me voy a ahogar/"},
{"title": "El jardín más bello", "lyrics": "/De niño era el jardín más bello / Reventaba en pétalos plenos de perfume y color / Una exuberancia fresca de matices insolentes / Violento de tan suave / de tan fragante / El pasatiempo de mamá resultó en podar mis flores / Con su tijera de jardinera cortaba las mejores  / Desgarraba las frutas como un ave de presa / Talaba árboles tiernos / endurecía la tierra / con sus manitos de madre removía la tierra / arrancaba las raíces de las plantas más bellas / Los hombres no debíamos ser jardines / sino campos de Marte o rústicos baldíos / El jardín quedó desierto y pasé desolado / de vergel imponente a campo abandonado / Soñaba en primavera con tanto color ahogado / de un oasis sumiso / de un edén arrancado / De niño era el jardín más bello / Estallaba en pétalos plenos de perfume y color / Una exuberancia fresca de matices insolentes   / Violento de tan suave / de tan fragante./"},
{"title": "Retiro terminal", "lyrics": "/Si es bueno lo que bien acaba / esto ha sido bien malo / Si malo es el comienzo / malo es el final / No se olvida el golpe en la disculpa / ni el grito en la caricia / Si malo fue comienzo / malo será el final / Un retiro terminal de tu aire firme / un cultivo de sal te dejo al irme / Este partir es partirme / partida al llegar / entero al irme / Se ha compuesto la voz después de tanto grito / Ahora escarbo en los colores / me deslizo en lo alto / Si bueno es el comienzo / bueno será el final / Salgo a pasearme en la oscuridad perfecta / que antes tanto temía / Soy una aurora limpia / sobre tanta dicha negra / Un retiro terminal de tu aire firme / un cultivo de sal te dejo al irme / Este partir es partirme / partida al llegar / entero al irme/ /"},
{"title": "Como tus zapatos", "lyrics": "/No te fuiste de casa / te quedaste en tus cosas / en tu cama revuelta / en tus libros abiertos / en tu abrigo tirado que ha quedado trabado como en un abrazo / En tu foto sonriente / en tus anteojos viejos / celándome tus cosas / siempre vigilantes / Los pondré de mi parte / cuando se enteren que también los dejaste / Como los zapatos que dejaste acá tirados / Uno boca abierta al cielo y el otro desatado / Como tus zapatos, incompletos, solos, gastados / Hermosos juntos / imperfectos separados / No te fuiste de casa / te quedaste en tus cosas / en tus libretas viejas / que confinan tu historia / en una serie larga de dibujos con lápiz y días arrancados / Tu gorra con mi nombre / ha quedado tumbada / parece como ahogada / después de haber braceado / y haber tragado el aire envenenado que amparaba tu almohada / Como los zapatos que dejaste acá tirados / Uno boca abierta al cielo y el otro desatado / Como tus zapatos, incompletos, solos, gastados / Hermosos juntos / imperfectos separados/"},
{"title": "Para traerte a casa", "lyrics": "/Para traerte a casa te he escrito un cuento /Un cuento que ha germinado entre el deseo y el tiempo /Donde un cazador lastima a una paloma dormida /No tira para matarla, tira solo para herirla/Entre seda y gasas blancas la paloma sufre y sangra /pero el cazador la atiende, la acaricia y la acompaña /Para traerte a casa te he escrito un cuento /Un cuento que ha germinado entre el deseo y el tiempo/La paloma toma el aire y el cazador siente celos /porque el aire es la frontera entre el cazador y el cielo /Un hombre y una paloma no podrían enamorarse /El cazador es de tierra y la paloma es del aire /Para traerte a casa te he escrito un cuento /Un cuento que ha germinado entre el deseo y el tiempo/"},
{"title": "El cuadro de mi daño", "lyrics": "/A vos te han hecho daño /me dijiste al oído /mientras me sonreías /como firmando un cuadro /El cuadro de mi daño/Mientras amas a otros /me mirás desde lejos /admirando tu obra, /la de mayor tamaño /El cuadro de mi daño/Me decís con orgullo que soy /tu lienzo más importante /Que apenas un trazo y un solo color /hicieron tu obra más grande /Que sienta alegría, no sienta dolor /que cualquiera no es tela de nadie /Que hay hombres para ser hombres nomás /y hay hombres para hacer arte/"},
{"title": "Cuando el amor no entra", "lyrics": "/Cuando el amor no entra, no empujes que no va a entrar /Porque cuando el amor no entra, es simple, no puede entrar/No va a entrar con la risa, con el llanto ni con la pena /El amor mas bien germina si la tierra esta serena /Cuando el amor no entra, no empujes que no va a entrar /Porque cuando el amor no entra, es simple, no puede entrar /No va a entrar con una canción, ni con el humo ni con el vino /El amor te toma sobrio y te devuelve aturdido /Porque cuando el amor no entra, no empujes que no va a entrar /Porque cuando el amor no entra, es simple, no puede entrar /No sirve salmo ni rezo ni santo ni procesión /El amor más bien se espanta si hay dogma o hay religión /Porque cuando el amor no entra, no empujes que no va a entrar /Porque cuando el amor no entra es simple, es simple, /es simple no puede entrar/"},
{"title": "Agua blanca, pato negro", "lyrics": "/Cientos de toros negros /corren dentro de mi cuna blanca /me hacen hombre, me hacen agua /agua blanca /Tres jacintos marchitos /se inflaman en almíbar agria, /desatan tu cuerpo de tu alma. /Y queda solo un pato negro /Agua blanca, pato negro /Agua blanca /Sumergite sereno /se gentil, no hieras mi agua /que soy carne endeble, carne blanda /Si cualquier charco te basta /por favor no mires mi agua /que tanta ilusión me acuarela el alma /Y el alma blanca se hace negro /Agua blanca, pato negro /Agua blanca/"},
{"title": "Mi vida es un vestido", "lyrics": "/Mi vida es un vestido descosido /con una manga al hombro y otra a la falda /El cuello sin bordado y el escote ajustado /asfixiante, ahogado… deslucido/Una falda con flores ladeada hacia un costado /violetas y amarillas como un fuego apagado /Mi vida es un vestido de verano /es un vestido corto, muy corto y abrigado/Mi vida es un vestido desguasado /armado con la tela de un pañuelo bordado /con un solo cabello de un ángel separado /de las cosas del cielo por ser tan bien amado/Mi vida es un vestido perdido y olvidado /con toques portentosos de colores apagados /Mi vida es un vestido que juntos hilvanamos /sobre la sombra larga de cuando nos amamos/Mi vida es un vestido descuidado /Nunca de moda… nunca muy usado/"},
{"title": "Beso el beso", "lyrics": "/Como con las palabras /así han vaciado los besos /que tan jugosos nacieron /y hoy los amontonan secos/Tu boca no me lo dice /porque tu boca no quiere /pero a tu boca la manda su beso /y se bien que tu beso quiere/Y ahí voy ahí voy ahí voy /Y ahí voy ahí voy, ay ay ay ay ay! /Beso el beso sobre la boca que mi boca no debe besar/La lengua es fiel compañera /de mi palabra y mi beso /Hace muy bien lo que hace, /suelta palabras y amarra besos/Un régimen se descubre /cuando golpea estos besos /cuando golpea estas palabras /cuando golpea estos cuerpos/Y ahí voy ahí voy ahí voy /Y ahí voy ahí voy, ay ay ay ay ay! /Beso el beso sobre la boca que mi boca no debe besar/"},
{"title": "Costurera y carpintero", "lyrics": "/Cuando crezca seré /un prodigioso carpintero /un hombre poderoso de mirada serena /con cuerpo de niña curiosa y atenta/Colmare mi antojo y construiré /para mi mismo mis propias muñecas /solo con mis dedos lijare su piel /para que guardemos la resina fresca/Me enamorare de /una buena costurera /una mujer diestra, una buena mujer /con cuerpo de niño y manos bien dispuestas /Yo la amare y la protegeré /De todo el terror de la naturaleza /ella me amara y coserá para mi /los mejores vestidos para mis muñecas/Ella será sabia y sabrá sonreír /cuando le griten niño costurera /dirá que nada importa si estamos enteros /niño costurera y niña carpintero/"},
{"title": "¿Están dopados los enamorados?", "lyrics": "/¿Están dopados los enamorados? /Están dopados o algo así ha de ser/Se deforman perfectos /Se mueven bien lento /Se suspiran por turnos /Pierden el parpadeo/¿Están dopados los enamorados? /Están dopados o algo así ha de ser/Pierden la perspicacia /Se les va el ingenio /Se sospechan, confían /que ahora todo será bueno/¿Están dopados los enamorados? /Están dopados o algo así ha de ser/No piensan, no razonan, no analizan /Se proyectan, se estudian /Se visten y se desnudan/¿Están dopados los enamorados? /Están dopados o algo así ha de ser/Alteran su conciencia /de vacíos a llenos /De complejos a simples /De mortales a eternos/¿Están dopados los enamorados? /Están dopados o algo así ha de ser/"},
{"title": "Árbol de naranjas", "lyrics": "/Árbol de naranjas /No ha venido /Dame una fruta dulce /bien dulce para el olvido/Árbol de naranjas /Perfumá el camino /Marcale una estela dulce /parece que se ha perdido/Cae una naranja /Caen dos /Caen todas las naranjas /salvo el sol /Que fue naranja tuya que subió /Que caliente sus pies; /perfume su corazón/Árbol de naranjas /No ha venido /Dame una fruta dulce /bien dulce para el olvido/Cae una naranja /Caen dos /Caen todas las naranjas /salvo el sol /Que fue naranja tuya que subió /Que caliente sus pies /Perfume su corazón /Le endulce la partida /Le ilumine mi amor/"},
{"title": "La cabeza de la novia cayó sin su velo", "lyrics": "/La cabeza de la novia cayó sin su velo /El novio se ha fugado, su padre lo anunció, /frente a un altar con flores un mediodía de enero. /Y la obrerita enferma, /que ha bordado de perlas las gasas del vestido, /por amor a su dueña /se abrió como un jazmín del barro de la iglesia/La novia del Cristo sus ojos apartó /y los ojos castaños de su obrerita buscó /Esto ha sido un milagro de la virgen, pensaron las dos /Ella sabía sus cosas, la novia y la obrerita le pedían por su amor /Vigiladas en el hilván rezaban y se amaban escondidas en el probador/La novia y la obrerita de espaldas al altar /besaron a la virgen para grabar su amor /Volaban el espanto de la gente /El barrio se partió /Las puertas de la iglesia se vencieron /el novio mancillado desarmó la luz del sol /y con un arma nueva… disparó/La nieve de los velos la sangre derritió /tumbándose en el atrio se derraman las dos /Cada disparo /como un golpe de tijera cortó /la única puntada que a la vida las cosió /y ahí se van con la virgen, no se van con Dios/"},
{"title": "Dios me ha pedido un techo", "lyrics": "/Dios /me ha pedido un techo. /Cansado de todo ese cielo, /de no tener nada encima del lomo, /de no tener nada, /de tenerlo todo. /Dios /me ha pedido un beso. /Le acerco mi boca. /No besa, no toca. /Dios nunca ha besado /siendo tan amado. /Dios /me ha pedido un padre /presente o ausente, /amante o hiriente, /que le hable y lo calle /y que lo alimente. /Dios me ha pedido un techo. /Dios me ha pedido un beso./"},
{"title": "Nada", "lyrics": "/Voy a contarte todo /pero voy a decirte nada /me decís que estás conmigo /pero miro y veo nada /nada, nada y nada./Que tenemos una casa /donde el amor se desata /pero la ausencia vacía /y una casa vacía es nada /nada, nada y nada./Mañana el tiempo lo arregla /hoy mejor digamos nada /Somos es hoy, Somos no es mañana /mañana para mí hoy es nada /nada, nada y nada./"},
{"title": "Mirá quien llega Consuelo", "lyrics": "/Mirá quien llega Consuelo /Mirá quien llega /Ha venido la Muerte Consuelo /¿Para quién llega?/Es una muerte clara /Es muerte lenta /La Muerte trae una niña Consuelo /para que aprenda/Aprenderá jugando /con caballos domados /con animales viejos Consuelo /y con peces dorados /Le da las cosas simples /debe aprender jugando /con leones de circo Consuelo /y con enamorados/La niña arrastra a la Muerte Consuelo /cansada ya de jugar /La muerte anima a su niña Consuelo /al amor lo mata mal/Servile algo a la Muerte Consuelo, /dulce, leche y pan /Que alimentar su niña Consuelo /tiene a la Muerte mal/"},
{"title": "Un par de cositas nuestras", "lyrics": "/Una niña apuñalada es la tristeza /que llora sobre un caballo enamorado que vuela /Que vuela sobre si mismo y en su reflejo se regodea /Una herida de amor es una tristeza fresca que vuela/Hojas nuevas, hojas viejas, hojas vivas, hojas muertas /En las hojas se definen un par de cositas nuestras/Un niño sin brazos que corre despacio es la espera /que se ahoga lentamente en algún mar de la tierra /Un mar cuyas aguas negras han vuelto la tierra /El abandono es un mar oscuro que en agua negra te entierra/Hojas nuevas, hojas viejas, hojas vivas, hojas muertas /En las hojas se definen, mirá, un par de cositas nuestras/"},
{"title": "Toda el agua del mundo", "lyrics": "/Toda el agua del mundo se ha incendiado /y han quedado los pozos donde hubo lagos /Donde estaban los mares hay desiertos blancos /Donde estaban los ríos hay puro viento manso/Para verdear la tierra nos separaremos /Vos te iras a los vientos mi amor /yo me iré al desierto /Y con esa tristeza lloraremos/Yo que lloro salado llorare los mares /Vos que lloras tan dulce mi amor /los ríos y los lagos /Y cuando la tristeza haya traído los mares /Hayan vuelto los ríos y hayan vuelto los lagos /Ahí pasare a buscarte mi amor algo seco algo mojado /para que estemos juntos y sonriamos./"},
{"title": "Tu amor es como el hambre", "lyrics": "/Tu amor es como el hambre que se come la noche /Cuando la noche es buena tu amor es como el hambre /Que se come las estrellas y la luna toda entera, /las camas y los sueños, las persianas y el silencio /los gatos que se aman fuera, los perros que esperan dentro /la sonrisa del que sueña y la angustia del despierto /Tu amor todo se lo traga; todo se lo traga entero./Tu amor es como el hambre que se come la noche /Cuando la noche es buena tu amor es como el hambre /Que se come la memoria, las fotos y los poemas /los cuadernos y los libros de otros que queres que duerman, /o que no hayan existido en mi vigilia en la tierra /Tu amor come los cuchillos, las cucharas, los sombreros /Tu amor todo se lo traga, todo se lo traga entero. /Tu amor es como el hambre que se come la noche /Cuando la noche es buena tu amor es como el hambre/"},
{"title": "Sobre el camino", "lyrics": "/Un animal extraño se ha detenido /al borde de un pozo seco sobre el camino /Es un animal bello, no lo defino, /tiene los ojos grandes como los míos./Y justo se detiene sobe el camino /cuando se están abriendo tu recorrido del mío /Casi al abandonarte, al decidirlo, /el animal se muere sobre el camino/¿Qué voy a hacer ahora con su cuerpo y el mío? /¿Qué voy a hacer ahora sobre el camino? /¿Lo dejo abandonado? ¿Lo entierro o lo cuido? /Somos tres en la vida, lo muerto, yo y el camino/Va parpadeando la noche sobre el camino /El horizonte se pierde, se prenden fuego los brillos /Curiosos son los lados de este camino /Por uno va lo que viene, por el otro lo vivido/Miro al animal quieto sobre el camino /Si parece estar vivo casi, como dormido /Que extraña es la frontera entre lo ido y lo vivo /Como algunos que muy muertos parecen estar muy vivos/¿Qué voy a hacer ahora con su cuerpo y el mío? /¿Qué voy a hacer ahora sobre el camino? /¿Lo dejo abandonado? ¿Lo entierro o lo cuido? /Somos tres en la vida, lo muerto, yo y el camino/"},
{"title": "Que llegue la noche", "lyrics": "/Que llegue la noche /que ninguna luz pueda iluminar /Que llegue la noche /Ya no quiero ver más/Que llegue la noche /Extingamos estrellas tirando al cielo el mar /Que llegue la noche /Solo quiero escuchar, oler, tocar y gustar/Que no se haga una luz /ni se haga el sueño /Quiero reconocerme en el silencio /que hay entre cada pulso; /entre aliento y aliento/Que llegue la noche /No enciendas el fuego que vas a espantar /las cosas de la noche que nos hermanan más/Traéme la noche… /ni la penumbra ni la oscuridad; /Traéme la noche /Apagame el sol… no quiero ver más./"},
{"title": "Madre despierta", "lyrics": "/Madre despierta /Se sacuden las puertas y afuera no hay tormenta /El sol ha hecho de piedra el paisaje /y ha guardado al hombre a sus cosas; la desidia y la niebla /Madre despierta/Padre despierta /La ventana esta abierta, no es viento lo que entra /Es aliento vacío exhalado por boca de la indiferencia /Padre despierta/Madre despierta /Lo que duerme en la cuna trepara hasta el bien /si bien se lo despierta /Padre despierta /que el árbol será bueno /si el brote se brota de una mano atenta/Madre despierta /Padre despierta/"},
{"title": "Por tus ojos", "lyrics": "/Yo; /que entre a la realidad /entrando /por tus ojos /No. /No tengo nada más /Nada más verdadero /que tu partida/Dormiré /para quemar en sueños /el mapa del camino /que sale de la cama /Por que se /que la luna /que le revienta el pecho /Me alimentará siempre/Luna madre /luna dame luz /dame luna/Cada noche /la luna llenara /con rocío la copa de mi mesa de noche /Volverá /el agua de esta copa /en leche tibia y dulce /Para mí/Luna madre /luna dame luz /dame luna/"},
{"title": "De paso", "lyrics": "/Visitamos lo nuestro como el viajero, /que solo usa las cosas con desapego /Que no las compromete con su olor o su historia /pues no le pertenecen, pues no le importan/No nos decimos más que lo que es necesario /No mezclamos la ropa ni nos rebautizamos /Hasta dudas mi nombre cuando nos despertamos /y hago esfuerzo en nombrarte a veces cuando nos saludamos/Voy de paso en tu vida. Yo voy de paso /Vas de paso en mi vida. Vos vas de paso/Solo hay hoy y tal vez haya un leve pasado /Un volátil futuro que ni un nombre le han dado /Nunca habrá fotos nuestras, ni libros dedicados /Poco recuerdo abierto, mucho olvido cerrado/Voy de paso en tu vida. Yo voy de paso /Vas de paso en mi vida. Vos vas de paso /con un paso ligero, minúsculo, liviano /como huella de un cuervo en el aire revuelto /Un pozo fino y hondo calado en algún viento /de algún país sin nombre sin historia ni pueblo /porque estamos de paso en esto nuestro/Voy de paso en tu vida. Yo voy de paso /Vas de paso en mi vida. Vos vas de paso/"},
{"title": "Aquí tus manos", "lyrics": "/Donde pongas tus ojos ahí quedara mi casa /Quien precisa los muros con tu mirada /Donde apoyes tus pies, ahí comeremos /y allí donde sonrías bien nos dormiremos./Nuestra casa es segura no hay que cerrarla /y aunque lo tiene todo hay que ordenarla /Allá ira mi cabeza, allí mis brazos, /aquí pondré mis piernas y aquí tus manos/Donde caiga la lluvia nos bañaremos /y donde pegue el sol, recordaremos /Donde jueguen las flores crecerán nuestros hijos /y daremos las fiestas más grandes donde floreen los tilos/Nuestra casa es segura no hay que cerrarla /y aunque lo tiene todo hay que ordenarla /Allá ira mi cabeza, allí mis brazos, /aquí arriba mis piernas y aquí tus manos /Aquí tus manos amor /Aquí tus manos/ /"},
{"title": "Lo que te da terror", "lyrics": "/Lo que te da terror te define mejor, /no te asustés, no sirve, no te escapés, volvé /Volvé, tocá, miralo dulcemente esta vez, /que hay tanto de él en vos pero hay más de vos en él /¿Dónde queda lo que crees? ¿Dónde queda lo que ves? /¿Dónde se irá si se va? ¿Dónde se fue? ¿O será que ya no está? /Si hay Dios, si hay amor, si hay vida después, /Si hay mundo, si hay hoy, hay mañana, hay tal vez, /Si hay ayer, si hay recuerdos /Si hay de haber o ay de doler /Lo que te da terror te define mejor, /no te asustés, no sirve, no te escapés, volvé /Volvé, tocá, miralo dulcemente esta vez, /que hay tanto de él en vos pero hay más de vos en él /Cómo, cuándo, dónde, quién fue, para quién será /Quién ha sido y porqué el frío /la pasión,  la vejez, el amo, el esclavo y el dolor de reconocerse /atado, golpeado, libre, liberado, culpable, culpado, /al frente,  al costado de quien no se larga por miedo a quedarse solo, abandonado /Lo que te da terror te define mejor, /no te asustés, no sirve, no te escapés, volvé /Volvé, tocá, miralo dulcemente esta vez, /que hay tanto de él en vos pero hay más de vos en él /Hay miedos que espantan que van a volver, /hay otros que están pero van a ceder, /hay riqueza, hay pobreza, hay hambre y tanto que un verso no alcanza para decir cuánto /Si vuelve, si va, se queda o si está, si recuerda a veces o va a recordar, /si vive con alguien, si ha muerto con alguien, si está… /si está… /Lo que te da terror te define mejor, /no te asustés, no sirve, no te escapés, volvé /Volvé, tocá, miralo dulcemente esta vez, /que hay tanto de él en vos pero hay más de vos en él/"},
{"title": "Soltá", "lyrics": "/Qué lees, qué me ves, /qué soñás cuando te veo /sentada en cicatrices tan adentro y tan lejos /Qué comés, qué dormís, /qué decís tan frágil en tu acento, /tan dura con tu historia, gentil con el infierno /Traicioná de una vez al dolor /Compañeros así son enemigos buenos /¡Soltá el dolor! /Pie adelante, pie atrás, /caminás y volvés al comienzo, /tu laberinto es sólo un camino con nervio /Si soltás vas a ver que no hay más /que todo esto que vemos, /las cosas son sinceras nos miente el argumento /Traicioná de una vez al dolor /Compañeros así son enemigos buenos /¡Soltá el dolor!/"},
{"title": "Solcito lindo", "lyrics": "/Solcito lindo apurá la fruta /que tengo hambre y el hambre empuja /Vos sabés que se esperar /¡Te he aguantado en cada una! /Cuando te hundiste en el cielo, pura nube y pura luna /Pero no puedo esperar a que se venga el verano, /tengo en la panza cantando un solo verso fierazo /Solcito lindo apurá la fruta /que tengo hambre y el hambre empuja /Ya sé que la flor es linda, sabés cuanto la disfruto, /que me cuida su perfume y su color rompe el luto /Pero comiendo las flores sólo me adorno y perfumo /que es bueno y no es poca cosa pero no alcanza; te juro /Solcito lindo apurá la fruta /que tengo hambre y el hambre empuja /Nunca me gustó pedir, yo prefiero que me pidan, /es cuando se van las cosas que la vida se hace vida /Haceme este favorcito hace de esta flor la fruta /No me hagas pedirle al hombre su comida no me gusta /Solcito lindo apurá la fruta /que tengo hambre y el hambre empuja /y el hambre empuja /y el hambre empuja /y el hambre empuja /y el hambre empuja /y el hambre empuja/"},
{"title": "Receta del hechizo para la mañana del primer día del tercer año", "lyrics": "/Tengo una red, /me voy cazar como a mariposas el agua del mar /Aparto la espuma, quito la sal, /queda un agua de alas que ahoga y vuela el mal /Alas con agua bendita del mar /hagan cicatrices donde sangra mal /Si una vieja herida no puede cerrar /que se haga de plumas y se ahogue al volar /Para que esta noche se deje clarear /preciso mil soles juntos en la aurora, /para cuando salgan poder preguntar /porqué no olvidamos pudiendo olvidar /Sol, sal, alas y agua bendita del mar /hagan cicatrices donde sangro mal /Si esta vieja herida no puede cerrar /cúbranme de espuma, cúbranme de sal/"},
{"title": "El enterrador y la Muerte", "lyrics": "/El enterrador un día plantó a la muerte, /tapó a un niño en el pozo y lo veló con su suerte /Tanto y tanto enterrado nunca le floreció /y en lugar de cerrarse esa noche se abrió /La Muerte llora y llora y llora y llora sin consuelo /“Enterrar es un arte – dice –  sembrar es irse al suelo. /La semilla se prende de cualquier campo, /los cuerpos solo explotan en mi campo que es santo”/Enterrador /que abandonás a la muerte para ser labrador /y ver crecer lo que entierres /Ya nunca más un pozo solo harás puro surco, /te germinará todo hasta otro mundo en el mundo /Iras con animales comiendo lo que crezca /Sembrar no es enterrar /Enterrar no es sembrar /Sembrar no es enterrar, /el que siembra cosecha /Enterrador /que abandonaste a la muerte /para ser labrador y ver crecer lo que entierres /Enterrador /enamoraste a la muerte /A vos te va a sembrar cuando te entierre/"},
{"title": "Semejantes alas", "lyrics": "/Pero qué pena tan grande /Tan grande pena me da /verte semejantes alas y que no quieras volar /Que te guste tanto el suelo /Que mires tanto tus pies /y que las alas molesten en lugar de hacerte bien /Pero qué pena tan grande /Tan grande pena me da /verte semejantes alas y que no quieras volar/"},
{"title": "Mi buitre en este invierno", "lyrics": "/Voy a soltar mi buitre en este invierno /y va volar hambriento entre las cosas y mi cuerpo /Mi buitre va a volar /Mi buitre va a tragar tanta carne en silencio que aullará /desgarrando la casa de su hueso /Mi buitre va a estallar /Mi buitre es un cazador que nunca quiso cazar /Que hace un manjar del olvido pues no entiende el olvidar /El delata las dos patrias, es frontera donde va, /el come con pan de ortigas lo que deja el que se va /Mi buitre va a anidar del lado que dormías /Va a empollar pichones tan perfectos que arderán /Mi buitre va a criar /Mis buitres partirán cuando se hayan tragado todo el mal /y quede latiendo lo tibio, lo vivo, lo real mis buitres volarán /Mis buitres volarán/"},
{"title": "La pasión del espejo", "lyrics": "/Me deshice en la luz /y me desconocí cuando el viaje partió desde tu espejo /¿Qué nudo hondo se abrió para mostrarme así? /De carne me hice aurora en el reflejo /Una cosa soy yo y es otro el que está ahí /durando en el paisaje de un momento que se quedó tal vez a medio terminar /El cuerpo es poesía, el resto es verso /¿Quién puede asegurar /que tu imagen no está antes de que te asomes a la fuente? /A ver quién va a purgar su historia sin nadar bien lejos de la costa en la corriente /No salí como entré /después de proyectar mi cuerpo y mi memoria en este espejo /No te puedo contar las cosas que yo vi /No puedo transferirte mi reflejo/"},
{"title": "Si me falto de mí", "lyrics": "/¿Qué me queda de mí si me salgo de mí, /si me arrojo de mí, si salto, si falto? /Si solo quedara voz como señal de existir /vos arráncame la lengua que si no canto falto /¿Qué me queda de mí si me falto de mí? /¿Una sombra, un suspiro, aire turbio, /un goteo infinito, /un olvido perdido en la fiebre que fui? /¿De dónde sale tu voz? /¿De tu boca o tu bozal? /¿De quién es lo que decís y de quién lo que cantás? /Si nomás fuera mi voz que solo pueda cantar /me pego el salto de mí, dejo hablando a los demás /¿Pero qué queda de mí, si yo faltara de mí? /¿Un destello sin brillo, sin trueno, /sin luz, amarillo? Amarillo Amarillo /¿Un fantasma perdido en un viento sin fin? /Basta, apágame la luz que no quiero saber más /Lo que se oye dice tanto; /lo que se ve dice más/"},
{"title": "Mal al mal", "lyrics": "/Regalate la furia que ya has amado tanto /Que se agite tu brazo trabando su mano del corazón /Exhálale un tornado de pestes que le arrase los campos /Que no brote una hierba ni un árbol que no le cause horror /Que no nos cause espanto que haga el bueno bien al bien, /mal al mal y de terror al terror /Entregate a ese fuego que apague la luz de sus encantos /que ilumina su risa y su llanto que marchite su voz /Que no se abra un camino derecho, /que salga en cruz si parte, /que se ahogue en la lluvia y que cante sin fin la peor canción /Y que no nos cause espanto que haga el justo bien al bien, /mal al mal y de terror al terror/"},
{"title": "Voy a negar el mar", "lyrics": "/Nunca supe como entraste pero se cómo te fuiste /Un día se abrieron los techos, /se vino el mar y te hundiste /Me puse a bucear tus cosas que flotan bajo la sal /y aunque en el mar voy nadando yo voy a negar el mar /Alta la mar en la casa por los techos bajó el mar, /yo me ahogo y vos te hundiste /Si ya me ahogaba en el aire el mar me pone a boquear /Hay que ceder o hay que irse /Me hacia feliz la gotera pues nos ponía a bailar /La naturaleza es fuerte que techo la iba a parar /Si hasta la luz de esa vela allá lejos baila y puede iluminar /No ilumina por su fuego ilumina por bailar /Alta la mar en la casa por los techos baja el mar /Las cosas me están mareando /Bajamar la fantasía, pleamar la realidad /Yo voy a negar el mar nadando /Si ya me ahogaba en el aire el mar me pone a boquear /Hay que ceder o hay que irse /Si esta realidad no tiene que ver conmigo /ya está… no existe/"},
{"title": "1938", "lyrics": "/Ya se por dónde no voy así que no voy tranquilo /No me busques porque estoy ido /Me fui dejándome a mí en un lugar conocido /Parezco pero no soy /Yo estoy ido /Ido /No pensé ni en equipaje, /ni en destino, ni en abrigo /Solo hizo ganas de irse y me fui… ido /Ido /Mi paso detrás del tuyo, tu latido tras el mío, /cuando por fin pensé en mí me quise ido /Mirá como son las cosas una vez que se ha partido /Lo que era historia presente es una anécdota ido /Ido /Ido/ /"},
{"title": "Siempres", "lyrics": "/Siempre es un camino perdido, /un lobo medio dormido y dormido, /diez pasos adelante y diez atrás, /un cansancio sin inspiración, /una puesta de sol en el oído. /Los dos ojos dormidos siempre./Siempre es el aliento en el viento, /es agua ajena en el propio desierto, /los dos filos de un juramento, /nudos atando con desesperación. /Siempre es él gritándole al olvido /que todo tiempo pasado fue mujer./¿Cuánto dolor serás capaz de provocar para saber /cuánto amor serás capaz de dar? /¿Cuánto amor serás capaz de provocar para saber /cuánto dolor serás capaz de dar?/Siempre es un tren detenido, /es toda el hambre frente a un plato vacío, /una flor profunda en el ombligo, /estar listo sin ningún destino, /una cinta negra en el vestido /de una niña sola en un salón./Siempre es traición anunciada, /es pico y garra sin pájaro ni ala, /una peste elemental, /ropa abandonada en un placard, /un sombrero sin traje ni brillo /que nunca podrás volver a usar. /Siempre. /Siempre. /Siempre./ /"},
{"title": "No te alcanza", "lyrics": "/Encuentro a la liebre que asusta al león que vive en el mar /y que no te alcanza. /Te busco una roca con forma de buey con siete coronas /y no te alcanza. /Parto una montaña para abrirla en cien, hago eco tu nombre /¿y qué? No te alcanza. /Acelero el tiempo, hago pan mi voz, te perfumo el viento /y no te alcanza./No alcanza la liebre, ni el león, ni el mar. /No alcanzará el tiempo, ni el viento, ni el pan. /No alcanzará nada mientras te quieras ahogar /en esos mil mares que te hacen rodar. /No te llega, no te llegará. /No te llega, no te llegará. /No te llega… no te alcanza./Te cazo una flor, le cambio el color, le enseño tu nombre /¿y qué? No te alcanza. /Me dejo morir cuando vos querés, te enjuago en mi boca /y no te alcanza. /Me voy de mi cuerpo, te dejo mi voz, yo te hago feliz /¿y qué? No te alcanza. /Encierro a aquel ángel que no habla de Dios, lo pongo en tu ropa /y no te alcanza./No alcanza tu nombre, mi boca, mi voz. /No alcanzará el cuerpo, ni el ángel, ni Dios. /No alcanzará nada mientras te quieras ahogar /en esos mil mares que te hacen rodar. /No te llega, no te llegará. /No te llega, no te llegará. /No te llega… no te alcanza./"},
{"title": "Un eco, un gesto, una señal", "lyrics": "/¿Qué es el otoño? ¿Dónde sucederá? ¿En el color? /¿En el aire? ¿En la hoja? ¿En la caída? /Hoy nada puedo recordar, apenas puedo caminar, /¿era un pie detrás del otro o era encima? /Una canción, un eco, un gesto, una señal, /ya no sé qué fue cierto o qué mentira. /Algo pasó que lo olvidé, /que veo al recuerdo y que lo siento /como a un resucitado entre los muertos./No sé por qué ya lo olvidé, /no importa qué olvidé, solo lo olvido. /Siempre luché por recordar, /pero hoy qué buen regalo es olvidar. /Un sobre abierto, un escalón. /Hay cosas que prefiero no ligar, /como una cuerda y un puñal. /Hoy siento que me protege el olvidar./Duermo diez horas, duermo diez más y al despertar /qué importa si es de noche o si es de día. /Las cosas tienen tanta paz que me olvido de respirar /y este ahogo trae algo familiar. /No voy a hundirme, no quiero entrar, no voy a averiguar /si algo ha pasado, pasa o pasará. /En el recuerdo se guarda una canción que es en plural, /pero el olvido canta en singular./"},
{"title": "Como un motivo", "lyrics": "/Me decís que te puedo salvar, /que te puedo sacar de donde estás, /que te puedo sanar, que te puedo besar, /que te puedo soltar, que te puedo volar. /Me decís que yo te sé mirar, que yo te sé tratar, /que yo te sé tocar, que te puedo aclarar, /que te sé hacer brillar, que te puedo calmar, /que te puedo soñar./Y acá yo… de piedra, /como un detalle, como un motivo /para que vos /te salves, te saques, te sanes, te beses, /te sueltes, te vueles, te mires, te trates, /te toques, te aclares, te brilles, te calmes, /te llores, te rompas, te cuides, te abrigues, /te enseñes, te muestres, te llenes, /te abrigues conmigo, pero sin mí, /como un motivo, conmigo… /pero sin mí./"},
{"title": "Detenido y andando", "lyrics": "/Te soltás, te vas, te dejás ir /y aquí estás; /detenido y andando. /Corriendo sin saber a dónde vas, /ahí andás; /detenido y andando./Bien detrás de tus párpados verás la Libertad, /no esa fantasía que se hamaca entre su bien y entre su mal./Miraste y lo visto te aterró, /corrés de vos; /detenido y andando. /¿Es vuelo de escape o libertad /lo que volás detenido y andando?/La Verdad es las cosas que en el campo la noche dejó /en el suelo, en el aire, en el árbol y en la voz./Detrás de lo malo hay lo peor, /más allá, vos /detenido y andando. /Garra no es guante, ni amo es amor. /Amo es patrón. /Detenido y andando./Dormitá una tarde en la serpiente de este sol, /que tu cuerpo se haga un rayo y el perfume de una flor./"},
{"title": "La cama", "lyrics": "/Hacemos la cama con la tragedia /y la deshacemos con la comedia. /Ya no actuemos mal, actuemos peor; /apagá las luces, que baje el telón./Actué la cordura hasta donde pude, /donde vos leés loco, yo leo perfume. /No esperes que repita la línea que pasás, /vos estudiá la letra, que yo improviso mal. /¿Y si olvidás el guión ese que te enseñaron /y tan bien aprendiste de aquellos que montaron /la vida como tenía que ser? /Entregate al poema que vas a florecer./¿No ves que no conmueve como nos conmovía? /La escena no es la casa, es escenografía, /cartón, clavo y pintura, montado en diagonal. /Yo en tu lugar me iría sin saludo final /en coche, en colectivo, en tren /o algún amigo que te pase a buscar. /Vení… tomá un abrigo. /No vaya a ser la cosa que tengas que volver /con una escena nueva que tenga que aprender./Bueno, vamos cerrando, tenemos que acabar, /no me hago ningún drama si vos querés cerrar, /mejor que sea temprano, no lo tomes a mal, /no termines con llanto, ni grito, ni puñal. /Sé de tus preferencias por los sitios comunes, /pero esta vez tal vez un cierre que te anule /tanta mala actuación, tanto tango fatal, /un mutis por el foro y el aplauso final./Hacemos la cama con la tragedia /y la deshacemos con la comedia. /Ya no actuemos mal, actuemos peor; /apagá las luces, que baje el telón./ /"},
{"title": "Fin de fiesta", "lyrics": "/Fin de fiesta, la casa desierta; /todo duerme y todo despierta./Alguien escribió en la pared: /“No soy tuyo hasta la muerte… /yo soy tuyo para siempre”. /Oigo a los perros hablar de lo que vieron ayer, /vieron fundar mil países y vieron caer un rey./Qué extraña la primavera que llegó anoche al jardín, /dio el ciruelo un vestido carmín y dio encajes el jazmín, /faldas en las nomeolvides, medias en el alelí, /abrigos los pensamientos a medio cerrar y abrir./Fin de fiesta, la casa desierta; /todo duerme y todo despierta./"},
{"title": "El tabú del agua", "lyrics": "/Pongamos al sol las bestias, al sol pongamos el mar, /hagamos aire del agua para que empiece a aclarar. /Piden que cante bonito que han puesto al sueño a secar. /Pongan también la vigilia, que le cuesta reaccionar. /Vamos que viene la noche y que se va el sol./El barro fue a tu vestido pues lo quería adornar, /collar de piedras y bichos, negro y marrón vendaval. /Pintá de rojo mi boca, la tuya no va a alcanzar /para alegrar al que vuelve y al que se pudo quedar. /Vamos que viene la noche y que se va el sol./No caeré como quiera, sino como el cuerpo quiere. /Nunca como barro y agua; /caeré sobre vos como cae la nieve./La música nada sola, la música toda sola, /la música toda junta; la música… ¡ah la música! /Lleva en los surcos un libro que intenta sacar del agua, /el poema se va a entregar y la música lo salva. /Vamos que viene la noche y que se va el sol./"},
{"title": "Pequeña luz con tanto ardor", "lyrics": "/¿De qué querés te cante hoy, /pequeña luz con tanto ardor? /¿De un sol, de un río, de un mar, de amor? /¿De qué querés te canté hoy?/Yo nunca te pude engañar, /tampoco yo hoy quiero cantar, /pero no quiero elegir yo, /hoy será lo que quieras vos./¿De ganar? ¿De volar? /¿De soñar? ¿De pensar? /¿De qué querés te cante hoy, /pequeña luz con tanto ardor?/Yo te conozco y vos a mí, /sé que te puedo hacer reír, /al menos hoy pueda ayudar /a poner dulce a tanta sal. /Ha sido fuerte, ya lo sé, /pero confío en nuestra fe. /Esta canción no va a curar, /pero te quiere acompañar./¿De saber? ¿De brillar? /¿De bailar? ¿De gritar? /¿De qué querés te cante hoy, /pequeña luz con tanto ardor?/"},
{"title": "Lo que no se puede decir", "lyrics": "/No me abraces esta vez. /Alejate si querés saber. /Desatemos paredes y que suba el techo más alto que el sol. /Giremos a tiempo juntos para que nunca salga la luna /ni se venga la niebla, ni las sombras, ni la bruma./Encendamos las luces de todas las casas que tenga el mundo, /abrí bien la mirada que acá estoy vestido y acá estoy desnudo. /Sabés bien que no existe secreto para el que puede mirar. /Sabés bien que no hice lo que pude, yo hice más./Y ahora mirá, mirá, mirá, mirame bien, /es que no puedo, no quiero, no puedo, no quiero, no puedo hablar. /Voy a entregarme a tu mirada, solo a tus ojos nomás. /Lo que no se puede decir, se muestra./¿Cuánto dura la cura? ¿Cuánto dura la enfermedad? /¿Desde cuándo lo malo es bien y lo bien es mal? /No te estires buscando mis manos, que tampoco las podrás tomar. /Pondré la distancia y el cuerpo, yo no pongo más./"},
{"title": "A quién", "lyrics": "/A quién le hace mejor que yo te quiera /¿a mí o a vos?/Si tu amor es como un león /que duerme manso en mi balcón /bajo una nieve que hace florecer jazmines en sus garras, /entre su sueño y su pasión./A quién le hace mejor que yo te quiera /¿a mí o a vos? /Amor decime a quién le hace mejor que yo te quiera /¿a mí o a vos?/Si mi amor es un sol de enero /que brilla ciego en tu alhajero /que se confunde entre las piedras y un profundo terciopelo /de cada sombra y cada luz./A quién le hace mejor que yo te quiera /¿a mí o a vos? /Amor decime a quién le hace mejor que yo te quiera /¿a mí?/"},
{"title": "El ojo del cazador", "lyrics": "/Vamos alegría /que hoy soy todo tuyo y vos sos toda mía. /Vamos Felicidad /dejá caer al menos dos o tres perlas blancas en la herida, /que se confunda el nácar con la sangre y la saliva. /Vamos Oscuridad /dejate a los colores, dejame que te corra las cortinas, /que si la luz te enciende y te ilumina, /las cosas que no importan se marchitan /y caen hechas semillas que no prenden ni germinan./La presa siempre está sola aunque corra en compañía. /El ojo del cazador la arrebató de su vida./Vamos Tempestad /largate con honores, llevate lo que sobra y no se tira. /Arrancame al invierno que no migra, /dice que aquí es difícil la salida, /el aire le ha gustado y ha hecho un nido en cada silla./Vamos Revolución /andate a nuestros cuerpos, venite y enseñanos tu canción. /Dejanos descansar sobre tu lomo. /Ninguna cuna más segura y fina /que aquella que nos echa, nos transforma y nos abriga./La presa siempre está sola aunque corra en compañía. /El ojo del cazador la arrebató de su vida./"},
{"title": "Volver a Volver", "lyrics": "/Frío; /hace tanto frío /que no puedo más que arder. /Estallará; /mi boca estallará /en dulce de esmeraldas, en pájaros y espinas, y un paso se abrirá. /Y yo me iré /como el humo al aire que no podrá volver, /me haré un tornado dulce, un perfume, una piel, /seré mi propio padre y así voy a aprender /que irse es volver a volver./Afuera, /afuera solo el mundo, /puro aire para brujas y un tiempo que está y se fue. /Así, /con vértigo y vacío, /con mi cuerpo que es mío no me faltará nada /porque yo me iré como el humo al aire /que no podrá volver, /me haré un tornado dulce, un perfume, una piel, /seré mi propia madre y así voy a aprender /que irse es volver a volver /y a volver /y a volver /y a volver./ / /"},
{"title": "El agua sabe", "lyrics": "/Me decís que es agua dulce /pero a mi me sabe amarga /La pruebo de la fuente y es dulce /pero de tus manos me llega agria/Sabe dulce /Sabe amarga /Es el agua que es más sabia /Sabe dulce /Sabe amarga /El agua sabe; el agua es sabia/Cuando quise conocerte /te pedí un poco de agua /Al probarla de tus labios /se transformo en agua amarga/Sabe dulce /Sabe amarga /Es el agua que es más sabia /Sabe dulce /Sabe amarga /El agua sabe; el agua es sabia/Cuando dude de tu amor /te lleve a nadar al río /A un río bravo y bien dulzon que /se hizo un charco desabrido/Sabe dulce /Sabe amarga /Es el agua que es más sabia /Sabe dulce /Sabe amarga /El agua sabe; el agua es sabia/"},
{"title": "Si es hombre", "lyrics": "/Soldadito invasor /quitese el uniforme /y pongase a bordar /su bandera si es hombre/Cruzadito vencedor /quitele esas estrellas /Borde en su lugar /gajos y flores frescas /Ahora que la hebra se corto, /mientras elige un hilo nuevo y un nuevo color, /busque en su cabeza una canción /de esas que su madre alguna vez le canto/Y cante fuerte vencedor /y cantele a sus mujeres /que ellas saben transformar /todo el dolor que les duele/Llore mucho peleador /y cuente que le contaron /para poder combinar /ser asesino y cristiano/Adórnese con flores todo el pelo /Deje de ser soldado /Sea un hombre entero/"},
{"title": "Mi testamento en tu espalda", "lyrics": "/Nunca te voy a faltar /No te voy a dejar ni muerto /Porque antes de irme en tu espalda /voy a escribir mi testamento /en tres palabras perfectas /que escondan entre ellas el secreto de nada /Es todo lo que pude guardarme para darte /pude guardarme nada/Mi testamento escrito sobre el lomo /del libro más bello /sobre el revés del espejo, /el peregrino lado B de tu cuerpo /Mi último deseo para siempre quedará /en el revés de la trama /para cuando un poeta lo lea cumplirá /mi último deseo en tu espalda/"},
{"title": "A un puente sobre un río", "lyrics": "/Abrazados /Miro sobre tu hombro /Como un niño asomado /A un puente sobre un río /No. Vos no hables /Dejame que te cuente /el paisaje sobre el río. /Río/El viento barre el puente y seca las palabras /Apenas si respiro las cosas que te adivino /Un árbol se ha quebrado /El tronco queda en tierra; la copa sobre el río /Se la lleva el río/Un pájaro desgarra el río en dos mitades /Una parte segura, la otra parte inestable /los brazos se han partido /no me bajes del puente /del puente sobre el río/</div>/"},
{"title": "Ahí va tu cuerpo al fuego", "lyrics": "/ /Ahí va; /tu cuerpo al fuego ahí va. /Ahí va tu cuerpo al fuego. /Que lo consume pronto, lo acaba sin tocarlo /porque a un cuerpo traidor no lo quiere ni el diablo. /Ni el diablo, ni su fuego, ni el barro de un pantano /pues a la vida que ahí vive tu cuerpo le da asco. /Ahí va; /tu cuerpo al fuego ahí va. /Ahí va tu cuerpo al fuego./Lo quema en mi memoria y en la de los recuerdos /de las historias sanas y de todo lo bueno. /Ardiéndolo en el aire la tierra lo agradece, /no tendrá que pudrir lo que podrido viene. /Ahí va; /tu cuerpo al fuego ahí va. /Ahí va tu cuerpo al fuego./Ahí va; /tu cuerpo al fuego ahí va. /Ahí va tu cuerpo al fuego./"},
{"title": "Alguacil", "lyrics": "/Alguacil ¡Lluvia al fin! /Apurate que preciso el agua /que tengo la ropa sucia  y quiero la ropa blanca/El blanco se ve de lejos y vive lejos de acá /y si la ropa está sucia no va a verme desde allá/Alguacil ¡Lluvia al fin! /Apurate que preciso el agua /que tengo la ropa sucia  y quiero la ropa blanca/No quiero agua para el cuerpo pues le soy fiel, soy leal /y así mi cuerpo va limpio con ropa sucia nomás/Alguacil ¡Lluvia al fin! /Apurate que preciso el agua /que tengo la ropa sucia  y quiero la ropa blanca/Y si te sobre algún ala sosteneme arriba el sol /que con el sol bien arriba el blanco se ve mejor /Si acaso nunca aparece ha de ser porque no ve /Llevame en tu lomo al agua con la que lava sus pies/Alguacil ¡Lluvia al fin! /Apurate que preciso el agua /que tengo la ropa sucia  y quiero la ropa blanca/"},
{"title": "Los recuerdos son reflejos", "lyrics": "/La noche es una uva abierta entre los dientes de un niño /que cuando saca la lengua chorrea noche, chorrea vino. /Un vino oscuro que al sol se hace el aire que respiro, /intoxica la memoria, distorsiona lo vivido/Voy a pedirte un favor, /despabilame si pido que vuelva /lo que se ha ido, /que se aquiete lo movido, /que vuelvan los que han partido, /que vuelva el amor perdido, /los recuerdos son reflejos de espejos turbios torcidos/Que cosa extraña el recuerdo, recuerda raro el olvido, /no me muestra lo que tengo me muestra lo que tuvimos/"},
{"title": "La fruta que disfruto", "lyrics": "/No habrá canción de amor mientras vos estés cerca /porque el amor se cierra cuando hay algo que aterra/La fruta se abre sola si la muerde la boca, /se defiende, se cierra, se envuelve si un cuchillo la corta/Un cuchillo desgarra, mata la fruta, la ahoga. /La boca viva la abre; un cuchillo deshonra/Si comerse pudieran las rocas y la tierra /con mi boca seguro esas cosas se abrieran/Mas las frutas en frente de tu cuchillo se cierran /Su piel, carozo y pulpa frente a tu boca enferman /y tienen pesadillas al soñarse tragadas por tu garganta sucia /por ser tuya; por nada. /No se cierra la fruta por nada, /la fruta que disfruto me disfruta. /Con vos la fruta muere loca; estrangulada/"},
{"title": "En el aire", "lyrics": "/Subo al árbol lo más alto que puedo, no para ver más, /subo para dejar el suelo, para verlo. /Hoy no pondré mi mirada al frente ni adelante, /quiero a mis ojos y a mis pies colgados; en el aire. /No me grites que no puedo escucharte, /si me susurraras con tus ojos podría contestarte /Tu boca apunta al cielo pero tu palabra sangra el aire, /ese rencor es el ancla mejor para que tu voz no arranque. /Subí, no me pidas que baje para no ver más /Este aire es el país más soberano que pueda habitar/"},
{"title": "Dicen", "lyrics": "/Si el dolor te despierta cuando dormís de día /poné a dormir la noche que sanará la herida. /Me dicen sangra un tiempo, parece no termina, /pero un día llega el día – dicen – y la noche termina/La noche de la noche y la noche del día /Me dicen llega el día y la noche termina/Que limpie mi alhajero, que haga lugar, /que salga a cazar frutas para adornar /con azúcar y perlas mi pelo, mi mirar /para entrar en el mundo, /para endulzar la noche de la noche /y esta noche del día /Me dicen llega el día y la noche termina /La noche de la noche y la noche del día /Me dicen llega el día y la noche termina/"},
{"title": "La casa; nuestros discos", "lyrics": "/Fundamos nuestra casa comprándonos los discos, /poniendo nuestros nombres juntos en cada tapa, /y ahora que la casa se ha llenado de ruido /la música se marcha y se lleva los discos consigo/En la estampida tiembla lo que debe decirse /y así nos separamos sin hablar de los discos. /Una tapa en tu bolso con su disco en el mío /y así se fue quedando, solos, rayados, partidos/Una familia es pobre solo mientras se desgarra. /Hay grietas en las cajas, hay estuches partidos, /las tapas sin sus discos, los discos sin sus cajas, /las letras se han perdido y si aparecen se escapan/Y así quedo la casa que alguna vez fundamos, /partida por los discos que alguna vez unimos. /Quebrados, separados, regalados, perdidos, /las tapas con borrones sobre tu nombre o el mío/"},
{"title": "Sigo el río", "lyrics": "/Sigo el río que imagino, /de esta gente y de esta calle me hago un río, /un río ancho, un río divino, /soy un mago que hace ríos, /que hace hadas desconsoladas que lloran hilos de lana /de estas muertas con vestido, /que hace peces voladores nadando en te de colores /de estos hombres que se empujan, que corren cuando camino, /cuando nado en este río, /en el río que imagino /Tocame /Tocame y llevame al río /No me dejes a un costado soy un mago que hace ríos /Entre tantos hombres serios que te miran, yo me río /Soy un mago que hace ríos /Soy un mago… un buen partido/"},
{"title": "Que nuestra mirada", "lyrics": "/El espacio era uno hasta que una palabra /de un solo golpe seco fundó en una dos playas /Entre una playa y la otra cruza nuestra mirada /como un puente de hilo como una bala errada/No somos dos /No somos nada, nada, /nada más que nuestra mirada/Y andamos por los cuartos con las bocas descalzas /cambiándonos la ropa, sacudiendo las mantas, /hablándole a los libros, leyendo nuestras almas, /subiendo la escalera cuando el otro la baja/No somos dos /No somos nada, nada, /nada más que nuestra mirada/Esquivando sentidos cansamos nuestra casa /zurciendo los espacios quebrados, sin palabra /Y cuando se haga noche, y cuando se haga calma, /se cerrarán los ojos pero no la mirada/No somos dos /No somos nada, nada, /nada más que nuestra mirada/"},
{"title": "Nube y cielo", "lyrics": "/Tanto tiempo confundí a la nube con el cielo, /todo el tiempo que dormí; todo el tiempo /Nube, cielo /Cielo, nube y cielo /Nube, cielo, /cielo, nube y yo. /Mientras dormía la nube se iba /a ser parte del cielo de otro que no dormía /Nube, cielo /Cielo, nube y cielo /Nube, cielo, /cielo, nube y yo /Y así vivía /tomando a la nube como el mismo cielo /Hasta que un día se conmovió el trueno /y me despertó antes que cubra la nube al cielo /¡Trueno! /cielo, nube y cielo, /nube, trueno, /cielo, nube y yo. /Desperté y vi que donde debía estar la nube, /había colores y otro calor, /había perfumes y había un sol /trueno, cielo, nube y cielo /Nube, trueno, /cielo, nube y yo. /Volvés, llovés, llorás, contás /que no podías olvidar la luna, /que soy tuyo, que me amas, /que el cielo cambia, la nube jamás /Trueno, cielo, nube y cielo, /nube, trueno, /cielo, nube y yo. /Me acaricias y reclamás volver a ser todo mi cielo /Pero nube… ¿es que no ves /qué ahora conozco el sol y el cielo? /Nube, trueno /cielo, nube y cielo /Nube, trueno, cielo, nube y yo /Nube quedate pero ya no me creo que sos el cielo, /ya no me pierdo el calor del sol, /ya no me pierdo el color del cielo /Nube, trueno, /cielo, nube y cielo /Nube, trueno, /cielo, nube y yo /Nube… ¡Trueno! /Cielo, nube y cielo /nube, trueno, /cielo, nube y yo./"},
{"title": "Voy a montar un caballo", "lyrics": "/Voy a montar un caballo que sepa el camino a casa /Será lento y perfumado, el camino y el caballo /Montaré en pelo el perfume y llegaremos temprano, /con semejante caballo no va a haber jinete malo/Vos estarás esperando con toda la casa abierta /y el sol en las alacenas arma un sistema de estrellas, /nuestras tazas son planetas que giran por la madera /y un día dura una vuelta del sol a la azucarera/Mientras esta noche dure, y espero al caballo en vela, /te voy pensando en silencio sin conocerte siquiera /Ya te regalé mis cosas, las que tuve, tengo y tenga /pues no quiero tener nada para el momento en que vengas/Vos ya me estás esperando con toda la casa abierta /y el sol en las alacenas arma un sistema de estrellas, /nuestras tazas son planetas que giran por la madera, /un día dura una vuelta del sol a la azucarera /y un siglo irá en lo que lleve ir de una siesta a otra siesta/Voy a montar un caballo que sepa el camino a casa /Será lento y perfumado, el camino y el caballo/"},
{"title": "Volví al jardín", "lyrics": "/Cuando te fuiste volví al jardín /que había descuidado de tanto ir /persiguiendo el secreto que descubrí; /cuando los ojos se abren vuelve el jardín/Esa peste que ardiste pudrió la tierra, /el pasto, los frutales, las cosas buenas. /El árbol de naranjas, seco por siempre, /no ha dejado ni una simiente, /tenía frutas preciosas, solo por fuera, /pero ni una semilla que fuera buena/Sos lo que perseguías, sos esa tierra /lejana de tus cosas, sos patria ajena /Ni bien dije a la tierra que no volvías /nacieron flores nuevas todos los días /Es más, dejé la casa, duermo en la tierra /bajo un árbol enorme que me da fuerza /La felicidad no fue tenerte, /la felicidad total fue perderte/Cuando te fuiste volví al jardín /que había descuidado de tanto ir /persiguiendo la bestia que descubrí /cuando los ojos se abren vuelve el jardín/</div>/"},
{"title": "Seré tu ajuar", "lyrics": "/Zurcí, cosé de mí todo destrozo que veas, /bordá todo lo que creas que se pueda iluminar, /lavame en el río, poneme a secar, /doblame lentamente; seré tu ajuar /Si decidís no volver, o te decidís quedar /en el norte o en el sur, en el más allá o acá, /ya viene siendo lo mismo, ya me viene dando igual /pues en el sitio en que estés seré tu ajuar. /Zurcí, cosé de mí todo destrozo que veas, /bordá todo lo que quieras… seré tu ajuar/"},
{"title": "Pájaro tuerto", "lyrics": "/Pájaro tuerto con una sola pata, /cuando volar se quiere sobran las alas. /Pájaro tuerto con el pico quebrado, /el que canta verdades suena afinado. /Hay pájaros que cantan gordos desde una jaula /pero su canto es flaco no dice nada. /Cantan la misma canción sea verano o invierno /pues saben que es la canción que quiere escuchar su dueño. /Pájaro tuerto con una sola pata, /cuando volar se quiere sobran las alas. /Pájaro tuerto con el pico quebrado, /el que canta verdades suena afinado. /Hay pájaros que sus dueños los quieren hacer volar /y entregan todas sus plumas por ir a algún festival. /Pero el horizonte es bueno, les va  a volver a enseñar /que si el pájaro no canta el hombre no va a escuchar. /Pájaro tuerto con una sola pata, /cuando volar se quiere sobran las alas. /Pájaro tuerto con el pico quebrado, /el que canta verdades suena afinado./"},
{"title": "Soy todo lo que recuerdo", "lyrics": "/Soy todo lo que recuerdo y vos todo lo que has olvidado; /yo me muevo entre las cosas, vos entre fantasmas cansados. /Cuando la cárcel se desarmó la penitencia fue amarte; /no se fuga uno para atrás, se fuga para adelante. /El diablo tiene una cola que no la puede ocultar; /por más disfraz que te pongas siempre se te va a notar. /Soy todo lo que recuerdo y vos todo lo que has olvidado; /yo me muevo entre las cosas, vos entre fantasmas cansados. /La verdad es perro fiel que vive en todas las casas, /que muerde a quien no lo atiende y defiende al que lo guarda. /El manjar que los corderos sueñan un día comer /es lobo crudo con pelo vivo a punto de comer. /Soy todo lo que recuerdo y vos todo lo que has olvidado; /yo me muevo entre las cosas, vos entre fantasmas cansados./"},
{"title": "No te mires en el agua", "lyrics": "/No te mires en el agua que te irás con la corriente, /mirate fijo en mis ojos así te quedarás siempre. /Hay tres caminos a casa: por cielo, tierra y por mar, /no me interesa el camino, no me interesa llegar, /yo solo quiero quedarme donde vos quieras estar /para que funden mis ojos el lugar que vos buscas. /No te mires en el agua que te irás con la corriente, /mirate fijo en mis ojos así te quedarás siempre. /Cuando vos mirás a otro sin quererlo yo me voy /a vivir en una estrella, la única que no es un sol. /Es un pozo de silencio, un lugar donde estoy y no estoy, /donde muero si me quedo, donde muero si me voy. /No te mires en el agua que te irás con la corriente, /mirate fijo en mis ojos así te quedarás siempre./"},
{"title": "A algún puerto del Mar Muerto", "lyrics": "/Un buen día me planté, le di un boleto al recuerdo, /boleto solo de ida a algún puerto del Mar Muerto. /Por suerte guardé unos besos adentro de un libro viejo, /todo eso quedó en la casa; a vos te tira lo nuevo. /¡Ay si el dolor fuera una flor! /Esto es pura primavera nunca cambia la estación. /El fuego sueña con ríos, los ríos con el desierto, /cuando me tenías ibas y ahora volvés todo el tiempo. /¡Qué bueno que vuelvas vos y no vuelva tu recuerdo! /Con vos no me pasa nada ya, quedó todo en el Mar Muerto. /¡Ay si el dolor fuera una flor! /Esto es pura primavera nunca cambia la estación. /Un dolor mayor alivia otro dolor que es menor, /por eso ya no me dueles pues ya tengo un nuevo amor./"},
{"title": "Solo tenemos ciencia", "lyrics": "/El mundo es puro anzuelo pero mi boca es mía, /tras tantos aguaceros la pesca viene siendo sencilla; /nosotros lo sabemos… volamos siempre las aguas frías. /Desde la costa los pescadores no paran de tirar líneas; /los más valientes entran al agua con redes negras muy finas… /ya ves lo que hace al pez no es el agua, es su sed en lo que elija. /La Verdad tantas veces ya viene siendo bastante poco. /¿Tan pobres somos que solo hay ciencia frente a tanto dolor? /La marca de los arpones resalta el brillo de tus pupilas, /cuando mirás de frente se hace del cielo otro mar arriba, /mar abajo y arriba no hay pescadores si no hay orilla. /La Verdad tantas veces ya viene siendo bastante poco. /¿Tan pobres somos que solo hay ciencia frente a tanto dolor?/"},
{"title": "Hay una guerra / Hay una guerra allá afuera y te estoy invitando. / Las noticias son buenas si vas a dar batalla / pues lo quieras o no afuera hay una guerra, / no sirve que te escondas ni que vivas rezando; / cuando la muerte se alza siempre acaba encontrando. / Hay una guerra allá afuera y te estoy invitando. / Vas a perder tu historia, las ganas de contarte / y hasta como elegir como quieran amarte, / vas a perder tus cosas, tu vida verdadera, / vas a poder nombrarte solo como ellos quieran. / Hay una guerra allá afuera y te estoy invitando. / Tu lengua es una tropa con soldados caídos / y soldados que sirven también al enemigo, / de todo lo que dicen poca cosa se muestra; / es esclavo el contado y es amo el que lo cuenta. / Hay una guerra allá afuera y te estoy invitando.", "lyrics": "/"},
{"title": "Con su perfume y su olor", "lyrics": "/Nunca la quise a la muerte porque vos te irás con ella /y yo me quedaré solo esperando a que ella vuelva; /pero no volverá nunca pues sabe que si te deja /vos cruzarás paraísos para perfumar mi pena. /Todas las flores vienen con su perfume y su olor; /el olor es de la muerte, el perfume es del amor. /Los olorosos dolores, dolorosos porque penan, /los perfumosos amores, amorosos porque arriesgan. /Cuando el camino camina con dos nervios que se trenzan /se sacuden las distancias y la muerte cae muerta. /Todas las flores vienen con su perfume y su olor; /el olor es de la muerte, el perfume es del amor./"},
{"title": "De tanta y tanto", "lyrics": "/No vengas por tus cosas que ya están enterradas, /hice pozo por pozo y la tierra tragaba. /El pozo más profundo fue para nuestra cama, /en esa parte del campo nunca pudo crecer nada. /La tierra se seca de tanta voz que va quedando en palabra, /la tierra se seca de tanta y tanto. /La tierra se seca de tanto amor que va quedando enterrado, /la tierra se seca de tanto y tanto. /Pensar que me decías cada vez que podías: /“<i>cuando corran las casas la nuestra hará semilla</i>” /De todas esas cosas ni un brote se levanta; /de lo dicho en palabras no hay que creerse nada. /La tierra se seca de tanta voz que va quedando en palabra, /la tierra se seca de tanta y tanto. /La tierra se seca de tanto amor que va quedando enterrado, /la tierra se seca de tanto y tanto./"},
{"title": "Carne fría", "lyrics": "/Carne fría /que pongo al sol y al mismo sol enfría, /el sol huye de mí y así va el día /escapando hasta la noche tibia frente a esta carne fría. /Carne fría /saco el calor de todo lo que viva, /todo el invierno ha sido culpa mía, la sangre helada, /el músculo con vida pero en mi carne fría. /No pongas tu fe en las flores que duran tan pocas vidas, /toda tu belleza tanto me conmovería si no fuera carne fría. /No me digas que vos podrías ponerme en carne viva, /cuando intentaron solo helé sus vidas, /huye de mí salva tu carne tibia de esta carne, /carne fría que pongo al sol, /carne fría, saco el calor de todo, /carne fría, cuando intentaron solo carne fría. /¡Huye de mí! ¡Huye de mí!/"},
{"title": "Me voy al suelo", "lyrics": "/Me voy al suelo cada vez que te veo /cerca de la ventana mirando el camino. /No es lo que ves, es lo que veo, /el camino vacío parece lleno. /¿A que me abrazo tan fuerte cuando te abrazo? /No digas nada; no me hace falta, /cada cosa en la casa sabe bien lo que pasa. /Me voy al cielo cada vez que te veo /hilvanando el camino para llegar. /¿A que me abrazo tan fuerte cuando te abrazo?/"},
{"title": "¿Por qué no lloras un poco?", "lyrics": "/¿Por qué se guardan las cosas? Tanto trueno… tanto rayo… /las cosas que no se dicen se hacen flores de un pantano. /La muerte no existe acá, todo está vivo, presente, /la memoria es asesina; da muerte a la misma muerte. /Desembala la memoria que no hay cosa que no sirva, /te va a servir lo amarrado y lo que anda a la deriva. /¿Por qué no llorás un poco vos que vas bailando tanto? /Llora bien, abrí los ojos y después seguí bailando. /Podrán lloverte cien siglos pero ni un segundo más; /la desgracia es cuidadosa, llega y se marcha puntual. /No te pido que te amargues, me estás entendiendo mal, /el apetito no es hambre y moverse no es bailar. /Desembala la memoria que no hay cosa que no sirva, /te va a servir lo amarrado y lo que anda a la deriva. /¿Por qué no llorás un poco vos que vas bailando tanto? /Llora bien, abrí los ojos y después seguí bailando./</div>/"}
]
